Data wrangling with tidyverse
…
---
# Tibbles print nicely!

```r
library(tidyverse)
as_tibble(iris)
```

```
## # A tibble: 150 x 5
##    Sepal.Length Sepal.Width Petal.Length Petal.Width Species
##           <dbl>       <dbl>        <dbl>       <dbl> <fct>  
##  1          5.1         3.5          1.4         0.2 setosa 
##  2          4.9         3            1.4         0.2 setosa 
##  3          4.7         3.2          1.3         0.2 setosa 
##  4          4.6         3.1          1.5         0.2 setosa 
##  5          5           3.6          1.4         0.2 setosa 
##  6          5.4         3.9          1.7         0.4 setosa 
##  7          4.6         3.4          1.4         0.3 setosa 
##  8          5           3.4          1.5         0.2 setosa 
##  9          4.4         2.9          1.4         0.2 setosa 
## 10          4.9         3.1          1.5         0.1 setosa 
## # … with 140 more rows
```
…
---

```r
mydata
```

```
## # A tibble: 3,268 x 18
##    Order Family Genus Species Binomial ActivityCycle AdultBodyMass GestationLen
##    <chr> <chr>  <chr> <chr>   <chr>    <chr>                 <dbl>        <dbl>
##  1 Chir… Crase… Cras… thongl… Craseon… nocturnal              1.96         NA  
##  2 Chir… Vespe… Keri… minuta  Kerivou… <NA>                   2.03         NA  
##  3 Sori… Soric… Sunc… etrusc… Suncus … <NA>                   2.26         27.5
##  4 Sori… Soric… Sorex minuti… Sorex m… <NA>                   2.46         NA  
##  5 Sori… Soric… Sunc… madaga… Suncus … <NA>                   2.47         NA  
##  6 Sori… Soric… Croc… lusita… Crocidu… <NA>                   2.48         NA  
##  7 Sori… Soric… Croc… planic… Crocidu… <NA>                   2.5          NA  
##  8 Chir… Vespe… Pipi… nanulus Pipistr… <NA>                   2.51         NA  
##  9 Sori… Soric… Sorex nanus   Sorex n… <NA>                   2.57         NA  
## 10 Sori… Soric… Sorex arizon… Sorex a… <NA>                   2.7          NA  
## # … with 3,258 more rows, and 10 more variables: HomeRange <dbl>,
## #   DietBreadth <dbl>, LitterSize <dbl>, LittersPerYear <dbl>,
## #   MaxLongevity <dbl>, HabitatBreadth <dbl>, NeonateBodyMass <dbl>,
## #   PopulationDensity <dbl>, Terrestriality <chr>, TrophicLevel <chr>
```
…
* cleans the column names to something more computer friendly

* For example, brings all the column names to lowercase and adds underscores between words
---

# Regular column names

```r
mydata
```

```
## # A tibble: 3,268 x 18
##    Order Family Genus Species Binomial ActivityCycle AdultBodyMass GestationLen
##    <chr> <chr>  <chr> <chr>   <chr>    <chr>                 <dbl>        <dbl>
##  1 Chir… Crase… Cras… thongl… Craseon… nocturnal              1.96         NA  
##  2 Chir… Vespe… Keri… minuta  Kerivou… <NA>                   2.03         NA  
##  3 Sori… Soric… Sunc… etrusc… Suncus … <NA>                   2.26         27.5
##  4 Sori… Soric… Sorex minuti… Sorex m… <NA>                   2.46         NA  
##  5 Sori… Soric… Sunc… madaga… Suncus … <NA>                   2.47         NA  
##  6 Sori… Soric… Croc… lusita… Crocidu… <NA>                   2.48         NA  
##  7 Sori… Soric… Croc… planic… Crocidu… <NA>                   2.5          NA  
##  8 Chir… Vespe… Pipi… nanulus Pipistr… <NA>                   2.51         NA  
##  9 Sori… Soric… Sorex nanus   Sorex n… <NA>                   2.57         NA  
## 10 Sori… Soric… Sorex arizon… Sorex a… <NA>                   2.7          NA  
## # … with 3,258 more rows, and 10 more variables: HomeRange <dbl>,
## #   DietBreadth <dbl>, LitterSize <dbl>, LittersPerYear <dbl>,
## #   MaxLongevity <dbl>, HabitatBreadth <dbl>, NeonateBodyMass <dbl>,
## #   PopulationDensity <dbl>, Terrestriality <chr>, TrophicLevel <chr>
```

---
# Clean column names

```r
mydata %>% 
  janitor::clean_names()
```

```
## # A tibble: 3,268 x 18
##    order family genus species binomial activity_cycle adult_body_mass
##    <chr> <chr>  <chr> <chr>   <chr>    <chr>                    <dbl>
##  1 Chir… Crase… Cras… thongl… Craseon… nocturnal                 1.96
##  2 Chir… Vespe… Keri… minuta  Kerivou… <NA>                      2.03
##  3 Sori… Soric… Sunc… etrusc… Suncus … <NA>                      2.26
##  4 Sori… Soric… Sorex minuti… Sorex m… <NA>                      2.46
##  5 Sori… Soric… Sunc… madaga… Suncus … <NA>                      2.47
##  6 Sori… Soric… Croc… lusita… Crocidu… <NA>                      2.48
##  7 Sori… Soric… Croc… planic… Crocidu… <NA>                      2.5 
##  8 Chir… Vespe… Pipi… nanulus Pipistr… <NA>                      2.51
##  9 Sori… Soric… Sorex nanus   Sorex n… <NA>                      2.57
## 10 Sori… Soric… Sorex arizon… Sorex a… <NA>                      2.7 
## # … with 3,258 more rows, and 11 more variables: gestation_len <dbl>,
## #   home_range <dbl>, diet_breadth <dbl>, litter_size <dbl>,
## #   litters_per_year <dbl>, max_longevity <dbl>, habitat_breadth <dbl>,
## #   neonate_body_mass <dbl>, population_density <dbl>, terrestriality <chr>,
## #   trophic_level <chr>
```
---

# Can also be:

```r
mydata<- read_csv("data/sub_PanTHERIA.csv") %>% 
  janitor::clean_names()
mydata
```

```
## # A tibble: 3,268 x 18
##    order family genus species binomial activity_cycle adult_body_mass
##    <chr> <chr>  <chr> <chr>   <chr>    <chr>                    <dbl>
##  1 Chir… Crase… Cras… thongl… Craseon… nocturnal                 1.96
##  2 Chir… Vespe… Keri… minuta  Kerivou… <NA>                      2.03
##  3 Sori… Soric… Sunc… etrusc… Suncus … <NA>                      2.26
##  4 Sori… Soric… Sorex minuti… Sorex m… <NA>                      2.46
##  5 Sori… Soric… Sunc… madaga… Suncus … <NA>                      2.47
##  6 Sori… Soric… Croc… lusita… Crocidu… <NA>                      2.48
##  7 Sori… Soric… Croc… planic… Crocidu… <NA>                      2.5 
##  8 Chir… Vespe… Pipi… nanulus Pipistr… <NA>                      2.51
##  9 Sori… Soric… Sorex nanus   Sorex n… <NA>                      2.57
## 10 Sori… Soric… Sorex arizon… Sorex a… <NA>                      2.7 
## # … with 3,258 more rows, and 11 more variables: gestation_len <dbl>,
## #   home_range <dbl>, diet_breadth <dbl>, litter_size <dbl>,
## #   litters_per_year <dbl>, max_longevity <dbl>, habitat_breadth <dbl>,
## #   neonate_body_mass <dbl>, population_density <dbl>, terrestriality <chr>,
## #   trophic_level <chr>
```
…
<img src="img/dplyr.png" width=30%>

---
# Load the Star Wars data

```r
library(tidyverse)
data(starwars)
starwars
```

```
## # A tibble: 87 x 14
##    name  height  mass hair_color skin_color eye_color birth_year sex   gender
##    <chr>  <int> <dbl> <chr>      <chr>      <chr>          <dbl> <chr> <chr> 
##  1 Luke…    172    77 blond      fair       blue            19   male  mascu…
##  2 C-3PO    167    75 <NA>       gold       yellow         112   none  mascu…
##  3 R2-D2     96    32 <NA>       white, bl… red             33   none  mascu…
##  4 Dart…    202   136 none       white      yellow          41.9 male  mascu…
##  5 Leia…    150    49 brown      light      brown           19   fema… femin…
##  6 Owen…    178   120 brown, gr… light      blue            52   male  mascu…
##  7 Beru…    165    75 brown      light      blue            47   fema… femin…
##  8 R5-D4     97    32 <NA>       white, red red             NA   none  mascu…
##  9 Bigg…    183    84 black      light      brown           24   male  mascu…
## 10 Obi-…    182    77 auburn, w… fair       blue-gray       57   male  mascu…
## # … with 77 more rows, and 5 more variables: homeworld <chr>, species <chr>,
## #   films <list>, vehicles <list>, starships <list>
```
…
---
# Select the name, height, mass, and species columns only

```r
starwars %>% 
    select(name, height, mass, species)
```

```
## # A tibble: 87 x 4
##    name               height  mass species
##    <chr>               <int> <dbl> <chr>  
##  1 Luke Skywalker        172    77 Human  
##  2 C-3PO                 167    75 Droid  
##  3 R2-D2                  96    32 Droid  
##  4 Darth Vader           202   136 Human  
##  5 Leia Organa           150    49 Human  
##  6 Owen Lars             178   120 Human  
##  7 Beru Whitesun lars    165    75 Human  
##  8 R5-D4                  97    32 Droid  
##  9 Biggs Darklighter     183    84 Human  
## 10 Obi-Wan Kenobi        182    77 Human  
## # … with 77 more rows
```
…
```r
starwars %>% 
    select(name, height, mass, species) %>% 
    mutate(bmi = mass/(0.01*height)^2)
```

```
## # A tibble: 87 x 5
##    name               height  mass species   bmi
##    <chr>               <int> <dbl> <chr>   <dbl>
##  1 Luke Skywalker        172    77 Human    26.0
##  2 C-3PO                 167    75 Droid    26.9
##  3 R2-D2                  96    32 Droid    34.7
##  4 Darth Vader           202   136 Human    33.3
##  5 Leia Organa           150    49 Human    21.8
##  6 Owen Lars             178   120 Human    37.9
##  7 Beru Whitesun lars    165    75 Human    27.5
##  8 R5-D4                  97    32 Droid    34.0
##  9 Biggs Darklighter     183    84 Human    25.1
## 10 Obi-Wan Kenobi        182    77 Human    23.2
## # … with 77 more rows
```
…
# Sort the data based on the bmi

```r
starwars %>% 
    select(name, height, mass, species) %>% 
    mutate(bmi = mass/(0.01*height)^2) %>% 
    arrange(desc(bmi))
```

```
## # A tibble: 87 x 5
##    name                  height  mass species          bmi
##    <chr>                  <int> <dbl> <chr>          <dbl>
##  1 Jabba Desilijic Tiure    175  1358 Hutt           443. 
##  2 Dud Bolt                  94    45 Vulptereen      50.9
##  3 Yoda                      66    17 Yoda's species  39.0
##  4 Owen Lars                178   120 Human           37.9
##  5 IG-88                    200   140 Droid           35  
##  6 R2-D2                     96    32 Droid           34.7
##  7 Grievous                 216   159 Kaleesh         34.1
##  8 R5-D4                     97    32 Droid           34.0
##  9 Jek Tono Porkins         180   110 Human           34.0
## 10 Darth Vader              202   136 Human           33.3
## # … with 77 more rows
```
…
---

## Create a summary data in which you have the avarage mass and maximum hight each species, and sort it by the avarage mass

```r
starwars %>% 
    select(name, height, mass, species) %>% 
    group_by(species) %>% 
    summarize(avg_mass = mean(mass, na.rm = TRUE),
              max_height = max(height, na.rm = TRUE)) %>% 
    arrange(desc(avg_mass))
```

```
## # A tibble: 38 x 3
##    species      avg_mass max_height
##    <chr>           <dbl>      <int>
##  1 Hutt           1358          175
##  2 Kaleesh         159          216
##  3 Wookiee         124          234
##  4 Trandoshan      113          190
##  5 Besalisk        102          198
##  6 Neimodian        90          191
##  7 Kaminoan         88          229
##  8 Nautolan         87          196
##  9 Mon Calamari     83          180
## 10 Human            82.8        202
## # … with 28 more rows
```
…
Who is the youngest human?

Which homeworld has the most characters?

---
# Rename columns with `rename()`

```r
starwars %>% 
    select(name, height, mass, species) %>% 
    rename(char_name = name)
```

```
## # A tibble: 87 x 4
##    char_name          height  mass species
##    <chr>               <int> <dbl> <chr>  
##  1 Luke Skywalker        172    77 Human  
##  2 C-3PO                 167    75 Droid  
##  3 R2-D2                  96    32 Droid  
##  4 Darth Vader           202   136 Human  
##  5 Leia Organa           150    49 Human  
##  6 Owen Lars             178   120 Human  
##  7 Beru Whitesun lars    165    75 Human  
##  8 R5-D4                  97    32 Droid  
##  9 Biggs Darklighter     183    84 Human  
## 10 Obi-Wan Kenobi        182    77 Human  
## # … with 77 more rows
```
---

# `rename_all()`

Change all the column names to upper case

```r
starwars %>% 
    select(name, height, mass, species) %>% 
    rename_all(toupper)
```

```
## # A tibble: 87 x 4
##    NAME               HEIGHT  MASS SPECIES
##    <chr>               <int> <dbl> <chr>  
##  1 Luke Skywalker        172    77 Human  
##  2 C-3PO                 167    75 Droid  
##  3 R2-D2                  96    32 Droid  
##  4 Darth Vader           202   136 Human  
##  5 Leia Organa           150    49 Human  
##  6 Owen Lars             178   120 Human  
##  7 Beru Whitesun lars    165    75 Human  
##  8 R5-D4                  97    32 Droid  
##  9 Biggs Darklighter     183    84 Human  
## 10 Obi-Wan Kenobi        182    77 Human  
## # … with 77 more rows
```

---
# `left_join()`

```r
starwars %>% 
  mutate(height_m = height*0.01) %>% 
  select(name,height_m) %>% 
  left_join(starwars,by = "name")
```

```
## # A tibble: 87 x 15
##    name  height_m height  mass hair_color skin_color eye_color birth_year sex  
##    <chr>    <dbl>  <int> <dbl> <chr>      <chr>      <chr>          <dbl> <chr>
##  1 Luke…     1.72    172    77 blond      fair       blue            19   male 
##  2 C-3PO     1.67    167    75 <NA>       gold       yellow         112   none 
##  3 R2-D2     0.96     96    32 <NA>       white, bl… red             33   none 
##  4 Dart…     2.02    202   136 none       white      yellow          41.9 male 
##  5 Leia…     1.5     150    49 brown      light      brown           19   fema…
##  6 Owen…     1.78    178   120 brown, gr… light      blue            52   male 
##  7 Beru…     1.65    165    75 brown      light      blue            47   fema…
##  8 R5-D4     0.97     97    32 <NA>       white, red red             NA   none 
##  9 Bigg…     1.83    183    84 black      light      brown           24   male 
## 10 Obi-…     1.82    182    77 auburn, w… fair       blue-gray       57   male 
## # … with 77 more rows, and 6 more variables: gender <chr>, homeworld <chr>,
## #   species <chr>, films <list>, vehicles <list>, starships <list>
```
…
---

# Gather back the community matrix to a long format

```r
sw %>% 
  pivot_longer(cols = -films,names_to = "name",values_to = "present")
```

```
## # A tibble: 609 x 3
##    films                   name               present
##    <chr>                   <chr>                <dbl>
##  1 The Empire Strikes Back luke_skywalker           1
##  2 The Empire Strikes Back c_3po                    1
##  3 The Empire Strikes Back r2_d2                    1
##  4 The Empire Strikes Back darth_vader              1
##  5 The Empire Strikes Back leia_organa              1
##  6 The Empire Strikes Back owen_lars                0
##  7 The Empire Strikes Back beru_whitesun_lars       0
##  8 The Empire Strikes Back r5_d4                    0
##  9 The Empire Strikes Back biggs_darklighter        0
## 10 The Empire Strikes Back obi_wan_kenobi           1
## # … with 599 more rows
```
…
---
### omit all rows that contain `NA` somewhere in the data

```r
starwars %>% 
* na.omit()
```

```
## # A tibble: 29 x 14
##    name  height  mass hair_color skin_color eye_color birth_year sex   gender
##    <chr>  <int> <dbl> <chr>      <chr>      <chr>          <dbl> <chr> <chr> 
##  1 Luke…    172    77 blond      fair       blue            19   male  mascu…
##  2 Dart…    202   136 none       white      yellow          41.9 male  mascu…
##  3 Leia…    150    49 brown      light      brown           19   fema… femin…
##  4 Owen…    178   120 brown, gr… light      blue            52   male  mascu…
##  5 Beru…    165    75 brown      light      blue            47   fema… femin…
##  6 Bigg…    183    84 black      light      brown           24   male  mascu…
##  7 Obi-…    182    77 auburn, w… fair       blue-gray       57   male  mascu…
##  8 Anak…    188    84 blond      fair       blue            41.9 male  mascu…
##  9 Chew…    228   112 brown      unknown    blue           200   male  mascu…
## 10 Han …    180    80 brown      fair       brown           29   male  mascu…
## # … with 19 more rows, and 5 more variables: homeworld <chr>, species <chr>,
## #   films <list>, vehicles <list>, starships <list>
```
…
